info face="Segoe UI" size=32 bold=0 italic=0 charset="" unicode=0 stretchH=100 smooth=1 aa=1 padding=1,1,1,1 spacing=-2,-2
common lineHeight=43 base=35 scaleW=512 scaleH=512 pages=1 packed=0
page id=0 file="Segoe_UI.png"
chars count=192
char id=0       x=449  y=89   width=19   height=25   xoffset=1    yoffset=11   xadvance=21   page=0    chnl=0 
char id=10      x=0    y=0    width=0    height=0    xoffset=-1   yoffset=0    xadvance=0    page=0    chnl=0 
char id=32      x=0    y=0    width=0    height=0    xoffset=-1   yoffset=0    xadvance=9    page=0    chnl=0 
char id=33      x=377  y=89   width=7    height=25   xoffset=1    yoffset=11   xadvance=9    page=0    chnl=0 
char id=34      x=497  y=139  width=10   height=9    xoffset=1    yoffset=11   xadvance=13   page=0    chnl=0 
char id=35      x=376  y=114  width=21   height=23   xoffset=-1   yoffset=11   xadvance=19   page=0    chnl=0 
char id=36      x=81   y=0    width=16   height=31   xoffset=1    yoffset=8    xadvance=17   page=0    chnl=0 
char id=37      x=397  y=89   width=26   height=25   xoffset=0    yoffset=11   xadvance=26   page=0    chnl=0 
char id=38      x=423  y=89   width=26   height=25   xoffset=0    yoffset=11   xadvance=26   page=0    chnl=0 
char id=39      x=506  y=33   width=5    height=9    xoffset=1    yoffset=11   xadvance=7    page=0    chnl=0 
char id=40      x=411  y=0    width=10   height=30   xoffset=1    yoffset=11   xadvance=10   page=0    chnl=0 
char id=41      x=421  y=0    width=10   height=30   xoffset=-1   yoffset=11   xadvance=10   page=0    chnl=0 
char id=42      x=396  y=139  width=14   height=13   xoffset=0    yoffset=11   xadvance=13   page=0    chnl=0 
char id=43      x=268  y=139  width=18   height=17   xoffset=2    yoffset=18   xadvance=22   page=0    chnl=0 
char id=44      x=490  y=139  width=7    height=10   xoffset=-1   yoffset=30   xadvance=7    page=0    chnl=0 
char id=45      x=59   y=157  width=11   height=5    xoffset=1    yoffset=24   xadvance=13   page=0    chnl=0 
char id=46      x=45   y=157  width=7    height=6    xoffset=0    yoffset=30   xadvance=7    page=0    chnl=0 
char id=47      x=491  y=0    width=16   height=29   xoffset=-2   yoffset=11   xadvance=12   page=0    chnl=0 
char id=48      x=360  y=89   width=17   height=25   xoffset=0    yoffset=11   xadvance=17   page=0    chnl=0 
char id=49      x=213  y=89   width=11   height=25   xoffset=2    yoffset=11   xadvance=17   page=0    chnl=0 
char id=50      x=224  y=89   width=17   height=25   xoffset=0    yoffset=11   xadvance=17   page=0    chnl=0 
char id=51      x=241  y=89   width=16   height=25   xoffset=0    yoffset=11   xadvance=17   page=0    chnl=0 
char id=52      x=257  y=89   width=19   height=25   xoffset=-1   yoffset=11   xadvance=17   page=0    chnl=0 
char id=53      x=276  y=89   width=16   height=25   xoffset=1    yoffset=11   xadvance=17   page=0    chnl=0 
char id=54      x=292  y=89   width=17   height=25   xoffset=0    yoffset=11   xadvance=17   page=0    chnl=0 
char id=55      x=309  y=89   width=17   height=25   xoffset=0    yoffset=11   xadvance=17   page=0    chnl=0 
char id=56      x=326  y=89   width=17   height=25   xoffset=0    yoffset=11   xadvance=17   page=0    chnl=0 
char id=57      x=343  y=89   width=17   height=25   xoffset=0    yoffset=11   xadvance=17   page=0    chnl=0 
char id=58      x=184  y=139  width=7    height=18   xoffset=0    yoffset=18   xadvance=7    page=0    chnl=0 
char id=59      x=397  y=114  width=8    height=22   xoffset=-1   yoffset=18   xadvance=7    page=0    chnl=0 
char id=60      x=236  y=139  width=16   height=17   xoffset=3    yoffset=17   xadvance=22   page=0    chnl=0 
char id=61      x=442  y=139  width=18   height=12   xoffset=2    yoffset=20   xadvance=22   page=0    chnl=0 
char id=62      x=252  y=139  width=16   height=17   xoffset=3    yoffset=17   xadvance=22   page=0    chnl=0 
char id=63      x=384  y=89   width=13   height=25   xoffset=1    yoffset=11   xadvance=14   page=0    chnl=0 
char id=64      x=204  y=33   width=28   height=28   xoffset=1    yoffset=11   xadvance=31   page=0    chnl=0 
char id=65      x=161  y=63   width=23   height=25   xoffset=-1   yoffset=11   xadvance=21   page=0    chnl=0 
char id=66      x=184  y=63   width=17   height=25   xoffset=1    yoffset=11   xadvance=18   page=0    chnl=0 
char id=67      x=201  y=63   width=20   height=25   xoffset=0    yoffset=11   xadvance=20   page=0    chnl=0 
char id=68      x=221  y=63   width=21   height=25   xoffset=1    yoffset=11   xadvance=22   page=0    chnl=0 
char id=69      x=242  y=63   width=15   height=25   xoffset=1    yoffset=11   xadvance=16   page=0    chnl=0 
char id=70      x=257  y=63   width=15   height=25   xoffset=1    yoffset=11   xadvance=16   page=0    chnl=0 
char id=71      x=272  y=63   width=21   height=25   xoffset=0    yoffset=11   xadvance=22   page=0    chnl=0 
char id=72      x=293  y=63   width=20   height=25   xoffset=1    yoffset=11   xadvance=23   page=0    chnl=0 
char id=73      x=313  y=63   width=6    height=25   xoffset=1    yoffset=11   xadvance=9    page=0    chnl=0 
char id=74      x=319  y=63   width=11   height=25   xoffset=-1   yoffset=11   xadvance=11   page=0    chnl=0 
char id=75      x=330  y=63   width=19   height=25   xoffset=1    yoffset=11   xadvance=19   page=0    chnl=0 
char id=76      x=349  y=63   width=15   height=25   xoffset=1    yoffset=11   xadvance=15   page=0    chnl=0 
char id=77      x=364  y=63   width=26   height=25   xoffset=1    yoffset=11   xadvance=29   page=0    chnl=0 
char id=78      x=390  y=63   width=21   height=25   xoffset=1    yoffset=11   xadvance=24   page=0    chnl=0 
char id=79      x=411  y=63   width=24   height=25   xoffset=0    yoffset=11   xadvance=24   page=0    chnl=0 
char id=80      x=435  y=63   width=17   height=25   xoffset=1    yoffset=11   xadvance=18   page=0    chnl=0 
char id=81      x=178  y=33   width=26   height=28   xoffset=0    yoffset=11   xadvance=24   page=0    chnl=0 
char id=82      x=452  y=63   width=19   height=25   xoffset=1    yoffset=11   xadvance=19   page=0    chnl=0 
char id=83      x=471  y=63   width=17   height=25   xoffset=0    yoffset=11   xadvance=17   page=0    chnl=0 
char id=84      x=488  y=63   width=19   height=25   xoffset=-1   yoffset=11   xadvance=17   page=0    chnl=0 
char id=85      x=0    y=89   width=20   height=25   xoffset=1    yoffset=11   xadvance=22   page=0    chnl=0 
char id=86      x=20   y=89   width=22   height=25   xoffset=-1   yoffset=11   xadvance=20   page=0    chnl=0 
char id=87      x=42   y=89   width=32   height=25   xoffset=-1   yoffset=11   xadvance=30   page=0    chnl=0 
char id=88      x=74   y=89   width=21   height=25   xoffset=-1   yoffset=11   xadvance=19   page=0    chnl=0 
char id=89      x=95   y=89   width=20   height=25   xoffset=-1   yoffset=11   xadvance=18   page=0    chnl=0 
char id=90      x=115  y=89   width=20   height=25   xoffset=-1   yoffset=11   xadvance=18   page=0    chnl=0 
char id=91      x=431  y=0    width=8    height=30   xoffset=2    yoffset=11   xadvance=10   page=0    chnl=0 
char id=92      x=68   y=33   width=16   height=29   xoffset=-2   yoffset=11   xadvance=12   page=0    chnl=0 
char id=93      x=439  y=0    width=9    height=30   xoffset=-1   yoffset=11   xadvance=10   page=0    chnl=0 
char id=94      x=352  y=139  width=18   height=15   xoffset=2    yoffset=11   xadvance=22   page=0    chnl=0 
char id=95      x=83   y=157  width=16   height=4    xoffset=-1   yoffset=37   xadvance=13   page=0    chnl=0 
char id=96      x=27   y=157  width=9    height=7    xoffset=0    yoffset=10   xadvance=9    page=0    chnl=0 
char id=97      x=466  y=114  width=16   height=18   xoffset=0    yoffset=18   xadvance=16   page=0    chnl=0 
char id=98      x=256  y=33   width=18   height=26   xoffset=1    yoffset=10   xadvance=19   page=0    chnl=0 
char id=99      x=482  y=114  width=15   height=18   xoffset=0    yoffset=18   xadvance=15   page=0    chnl=0 
char id=100     x=274  y=33   width=18   height=26   xoffset=0    yoffset=10   xadvance=19   page=0    chnl=0 
char id=101     x=0    y=139  width=17   height=18   xoffset=0    yoffset=18   xadvance=17   page=0    chnl=0 
char id=102     x=292  y=33   width=13   height=26   xoffset=-1   yoffset=10   xadvance=10   page=0    chnl=0 
char id=103     x=135  y=89   width=18   height=25   xoffset=0    yoffset=18   xadvance=19   page=0    chnl=0 
char id=104     x=305  y=33   width=16   height=26   xoffset=1    yoffset=10   xadvance=18   page=0    chnl=0 
char id=105     x=153  y=89   width=6    height=25   xoffset=1    yoffset=11   xadvance=8    page=0    chnl=0 
char id=106     x=46   y=0    width=15   height=32   xoffset=-5   yoffset=11   xadvance=8    page=0    chnl=0 
char id=107     x=321  y=33   width=16   height=26   xoffset=1    yoffset=10   xadvance=16   page=0    chnl=0 
char id=108     x=337  y=33   width=6    height=26   xoffset=1    yoffset=10   xadvance=8    page=0    chnl=0 
char id=109     x=17   y=139  width=26   height=18   xoffset=1    yoffset=18   xadvance=28   page=0    chnl=0 
char id=110     x=43   y=139  width=16   height=18   xoffset=1    yoffset=18   xadvance=18   page=0    chnl=0 
char id=111     x=59   y=139  width=19   height=18   xoffset=0    yoffset=18   xadvance=19   page=0    chnl=0 
char id=112     x=159  y=89   width=18   height=25   xoffset=1    yoffset=18   xadvance=19   page=0    chnl=0 
char id=113     x=177  y=89   width=18   height=25   xoffset=0    yoffset=18   xadvance=19   page=0    chnl=0 
char id=114     x=497  y=114  width=11   height=18   xoffset=1    yoffset=18   xadvance=11   page=0    chnl=0 
char id=115     x=78   y=139  width=14   height=18   xoffset=0    yoffset=18   xadvance=14   page=0    chnl=0 
char id=116     x=363  y=114  width=13   height=23   xoffset=-1   yoffset=13   xadvance=11   page=0    chnl=0 
char id=117     x=92   y=139  width=16   height=18   xoffset=1    yoffset=18   xadvance=18   page=0    chnl=0 
char id=118     x=108  y=139  width=18   height=18   xoffset=-1   yoffset=18   xadvance=15   page=0    chnl=0 
char id=119     x=126  y=139  width=25   height=18   xoffset=-1   yoffset=18   xadvance=23   page=0    chnl=0 
char id=120     x=151  y=139  width=17   height=18   xoffset=-1   yoffset=18   xadvance=15   page=0    chnl=0 
char id=121     x=195  y=89   width=18   height=25   xoffset=-1   yoffset=18   xadvance=15   page=0    chnl=0 
char id=122     x=168  y=139  width=16   height=18   xoffset=-1   yoffset=18   xadvance=14   page=0    chnl=0 
char id=123     x=448  y=0    width=10   height=30   xoffset=0    yoffset=11   xadvance=10   page=0    chnl=0 
char id=124     x=0    y=0    width=5    height=33   xoffset=1    yoffset=10   xadvance=8    page=0    chnl=0 
char id=125     x=458  y=0    width=10   height=30   xoffset=0    yoffset=11   xadvance=10   page=0    chnl=0 
char id=126     x=9    y=157  width=18   height=8    xoffset=2    yoffset=22   xadvance=22   page=0    chnl=0 
char id=160     x=0    y=0    width=0    height=0    xoffset=-1   yoffset=0    xadvance=9    page=0    chnl=0 
char id=161     x=500  y=89   width=7    height=24   xoffset=1    yoffset=18   xadvance=9    page=0    chnl=0 
char id=162     x=468  y=89   width=15   height=25   xoffset=1    yoffset=12   xadvance=17   page=0    chnl=0 
char id=163     x=483  y=89   width=17   height=25   xoffset=0    yoffset=11   xadvance=17   page=0    chnl=0 
char id=164     x=191  y=139  width=18   height=18   xoffset=0    yoffset=15   xadvance=18   page=0    chnl=0 
char id=165     x=0    y=114  width=18   height=25   xoffset=0    yoffset=11   xadvance=17   page=0    chnl=0 
char id=166     x=5    y=0    width=5    height=33   xoffset=1    yoffset=10   xadvance=8    page=0    chnl=0 
char id=167     x=343  y=33   width=13   height=26   xoffset=1    yoffset=11   xadvance=14   page=0    chnl=0 
char id=168     x=70   y=157  width=13   height=5    xoffset=0    yoffset=12   xadvance=13   page=0    chnl=0 
char id=169     x=356  y=33   width=26   height=26   xoffset=1    yoffset=11   xadvance=28   page=0    chnl=0 
char id=170     x=370  y=139  width=12   height=14   xoffset=0    yoffset=11   xadvance=13   page=0    chnl=0 
char id=171     x=410  y=139  width=16   height=13   xoffset=0    yoffset=20   xadvance=16   page=0    chnl=0 
char id=172     x=460  y=139  width=18   height=12   xoffset=2    yoffset=21   xadvance=22   page=0    chnl=0 
char id=174     x=405  y=114  width=22   height=21   xoffset=3    yoffset=11   xadvance=28   page=0    chnl=0 
char id=175     x=99   y=157  width=16   height=4    xoffset=-1   yoffset=10   xadvance=13   page=0    chnl=0 
char id=176     x=478  y=139  width=12   height=11   xoffset=0    yoffset=11   xadvance=12   page=0    chnl=0 
char id=177     x=427  y=114  width=18   height=21   xoffset=2    yoffset=15   xadvance=22   page=0    chnl=0 
char id=178     x=302  y=139  width=12   height=16   xoffset=0    yoffset=6    xadvance=12   page=0    chnl=0 
char id=179     x=314  y=139  width=11   height=16   xoffset=1    yoffset=6    xadvance=12   page=0    chnl=0 
char id=180     x=36   y=157  width=9    height=7    xoffset=1    yoffset=10   xadvance=9    page=0    chnl=0 
char id=181     x=266  y=114  width=17   height=24   xoffset=1    yoffset=18   xadvance=18   page=0    chnl=0 
char id=182     x=18   y=114  width=15   height=25   xoffset=0    yoffset=11   xadvance=15   page=0    chnl=0 
char id=183     x=52   y=157  width=7    height=6    xoffset=0    yoffset=23   xadvance=7    page=0    chnl=0 
char id=184     x=0    y=157  width=9    height=9    xoffset=-1   yoffset=34   xadvance=7    page=0    chnl=0 
char id=185     x=325  y=139  width=9    height=16   xoffset=0    yoffset=6    xadvance=11   page=0    chnl=0 
char id=186     x=382  y=139  width=14   height=14   xoffset=0    yoffset=11   xadvance=14   page=0    chnl=0 
char id=187     x=426  y=139  width=16   height=13   xoffset=0    yoffset=20   xadvance=16   page=0    chnl=0 
char id=188     x=33   y=114  width=28   height=25   xoffset=0    yoffset=11   xadvance=29   page=0    chnl=0 
char id=189     x=61   y=114  width=29   height=25   xoffset=0    yoffset=11   xadvance=30   page=0    chnl=0 
char id=190     x=90   y=114  width=28   height=25   xoffset=1    yoffset=11   xadvance=30   page=0    chnl=0 
char id=191     x=118  y=114  width=13   height=25   xoffset=1    yoffset=18   xadvance=14   page=0    chnl=0 
char id=192     x=97   y=0    width=23   height=31   xoffset=-1   yoffset=5    xadvance=21   page=0    chnl=0 
char id=193     x=120  y=0    width=23   height=31   xoffset=-1   yoffset=5    xadvance=21   page=0    chnl=0 
char id=194     x=143  y=0    width=23   height=31   xoffset=-1   yoffset=5    xadvance=21   page=0    chnl=0 
char id=195     x=468  y=0    width=23   height=30   xoffset=-1   yoffset=6    xadvance=21   page=0    chnl=0 
char id=196     x=84   y=33   width=23   height=29   xoffset=-1   yoffset=7    xadvance=21   page=0    chnl=0 
char id=197     x=0    y=33   width=23   height=30   xoffset=-1   yoffset=6    xadvance=21   page=0    chnl=0 
char id=198     x=131  y=114  width=29   height=25   xoffset=-1   yoffset=11   xadvance=28   page=0    chnl=0 
char id=199     x=61   y=0    width=20   height=32   xoffset=0    yoffset=11   xadvance=20   page=0    chnl=0 
char id=200     x=166  y=0    width=15   height=31   xoffset=1    yoffset=5    xadvance=16   page=0    chnl=0 
char id=201     x=181  y=0    width=15   height=31   xoffset=1    yoffset=5    xadvance=16   page=0    chnl=0 
char id=202     x=196  y=0    width=15   height=31   xoffset=1    yoffset=5    xadvance=16   page=0    chnl=0 
char id=203     x=107  y=33   width=15   height=29   xoffset=1    yoffset=7    xadvance=16   page=0    chnl=0 
char id=204     x=211  y=0    width=9    height=31   xoffset=-1   yoffset=5    xadvance=9    page=0    chnl=0 
char id=205     x=220  y=0    width=9    height=31   xoffset=0    yoffset=5    xadvance=9    page=0    chnl=0 
char id=206     x=229  y=0    width=12   height=31   xoffset=-2   yoffset=5    xadvance=9    page=0    chnl=0 
char id=207     x=122  y=33   width=12   height=29   xoffset=-2   yoffset=7    xadvance=9    page=0    chnl=0 
char id=208     x=160  y=114  width=23   height=25   xoffset=-1   yoffset=11   xadvance=22   page=0    chnl=0 
char id=209     x=23   y=33   width=21   height=30   xoffset=1    yoffset=6    xadvance=24   page=0    chnl=0 
char id=210     x=241  y=0    width=24   height=31   xoffset=0    yoffset=5    xadvance=24   page=0    chnl=0 
char id=211     x=265  y=0    width=24   height=31   xoffset=0    yoffset=5    xadvance=24   page=0    chnl=0 
char id=212     x=289  y=0    width=24   height=31   xoffset=0    yoffset=5    xadvance=24   page=0    chnl=0 
char id=213     x=44   y=33   width=24   height=30   xoffset=0    yoffset=6    xadvance=24   page=0    chnl=0 
char id=214     x=134  y=33   width=24   height=29   xoffset=0    yoffset=7    xadvance=24   page=0    chnl=0 
char id=215     x=286  y=139  width=16   height=17   xoffset=3    yoffset=17   xadvance=22   page=0    chnl=0 
char id=216     x=232  y=33   width=24   height=27   xoffset=0    yoffset=10   xadvance=24   page=0    chnl=0 
char id=217     x=313  y=0    width=20   height=31   xoffset=1    yoffset=5    xadvance=22   page=0    chnl=0 
char id=218     x=333  y=0    width=20   height=31   xoffset=1    yoffset=5    xadvance=22   page=0    chnl=0 
char id=219     x=353  y=0    width=20   height=31   xoffset=1    yoffset=5    xadvance=22   page=0    chnl=0 
char id=220     x=158  y=33   width=20   height=29   xoffset=1    yoffset=7    xadvance=22   page=0    chnl=0 
char id=221     x=373  y=0    width=20   height=31   xoffset=-1   yoffset=5    xadvance=18   page=0    chnl=0 
char id=222     x=183  y=114  width=17   height=25   xoffset=1    yoffset=11   xadvance=18   page=0    chnl=0 
char id=223     x=382  y=33   width=17   height=26   xoffset=1    yoffset=10   xadvance=17   page=0    chnl=0 
char id=224     x=399  y=33   width=16   height=26   xoffset=0    yoffset=10   xadvance=16   page=0    chnl=0 
char id=225     x=415  y=33   width=16   height=26   xoffset=0    yoffset=10   xadvance=16   page=0    chnl=0 
char id=226     x=431  y=33   width=16   height=26   xoffset=0    yoffset=10   xadvance=16   page=0    chnl=0 
char id=227     x=200  y=114  width=16   height=25   xoffset=0    yoffset=11   xadvance=16   page=0    chnl=0 
char id=228     x=283  y=114  width=16   height=24   xoffset=0    yoffset=12   xadvance=16   page=0    chnl=0 
char id=229     x=447  y=33   width=16   height=26   xoffset=0    yoffset=10   xadvance=16   page=0    chnl=0 
char id=230     x=209  y=139  width=27   height=18   xoffset=0    yoffset=18   xadvance=27   page=0    chnl=0 
char id=231     x=216  y=114  width=15   height=25   xoffset=0    yoffset=18   xadvance=15   page=0    chnl=0 
char id=232     x=463  y=33   width=17   height=26   xoffset=0    yoffset=10   xadvance=17   page=0    chnl=0 
char id=233     x=480  y=33   width=17   height=26   xoffset=0    yoffset=10   xadvance=17   page=0    chnl=0 
char id=234     x=0    y=63   width=17   height=26   xoffset=0    yoffset=10   xadvance=17   page=0    chnl=0 
char id=235     x=299  y=114  width=17   height=24   xoffset=0    yoffset=12   xadvance=17   page=0    chnl=0 
char id=236     x=497  y=33   width=9    height=26   xoffset=-2   yoffset=10   xadvance=8    page=0    chnl=0 
char id=237     x=17   y=63   width=9    height=26   xoffset=0    yoffset=10   xadvance=8    page=0    chnl=0 
char id=238     x=26   y=63   width=12   height=26   xoffset=-2   yoffset=10   xadvance=8    page=0    chnl=0 
char id=239     x=316  y=114  width=12   height=24   xoffset=-2   yoffset=12   xadvance=8    page=0    chnl=0 
char id=240     x=38   y=63   width=18   height=26   xoffset=0    yoffset=10   xadvance=18   page=0    chnl=0 
char id=241     x=231  y=114  width=16   height=25   xoffset=1    yoffset=11   xadvance=18   page=0    chnl=0 
char id=242     x=56   y=63   width=19   height=26   xoffset=0    yoffset=10   xadvance=19   page=0    chnl=0 
char id=243     x=75   y=63   width=19   height=26   xoffset=0    yoffset=10   xadvance=19   page=0    chnl=0 
char id=244     x=94   y=63   width=19   height=26   xoffset=0    yoffset=10   xadvance=19   page=0    chnl=0 
char id=245     x=247  y=114  width=19   height=25   xoffset=0    yoffset=11   xadvance=19   page=0    chnl=0 
char id=246     x=328  y=114  width=19   height=24   xoffset=0    yoffset=12   xadvance=19   page=0    chnl=0 
char id=247     x=334  y=139  width=18   height=16   xoffset=2    yoffset=18   xadvance=22   page=0    chnl=0 
char id=248     x=445  y=114  width=21   height=20   xoffset=-1   yoffset=17   xadvance=19   page=0    chnl=0 
char id=249     x=113  y=63   width=16   height=26   xoffset=1    yoffset=10   xadvance=18   page=0    chnl=0 
char id=250     x=129  y=63   width=16   height=26   xoffset=1    yoffset=10   xadvance=18   page=0    chnl=0 
char id=251     x=145  y=63   width=16   height=26   xoffset=1    yoffset=10   xadvance=18   page=0    chnl=0 
char id=252     x=347  y=114  width=16   height=24   xoffset=1    yoffset=12   xadvance=18   page=0    chnl=0 
char id=253     x=10   y=0    width=18   height=33   xoffset=-1   yoffset=10   xadvance=15   page=0    chnl=0 
char id=254     x=28   y=0    width=18   height=33   xoffset=1    yoffset=10   xadvance=19   page=0    chnl=0 
char id=255     x=393  y=0    width=18   height=31   xoffset=-1   yoffset=12   xadvance=15   page=0    chnl=0 
kernings count=1044
kerning first=101 second=39 amount=-2
kerning first=102 second=41 amount=2
kerning first=193 second=87 amount=-1
kerning first=76 second=63 amount=-2
kerning first=197 second=67 amount=-1
kerning first=221 second=79 amount=-1
kerning first=86 second=81 amount=-1
kerning first=84 second=83 amount=-1
kerning first=187 second=84 amount=-1
kerning first=65 second=85 amount=-1
kerning first=84 second=89 amount=1
kerning first=84 second=232 amount=-3
kerning first=102 second=93 amount=2
kerning first=87 second=97 amount=-1
kerning first=80 second=101 amount=-1
kerning first=84 second=102 amount=-1
kerning first=113 second=106 amount=2
kerning first=84 second=109 amount=-3
kerning first=222 second=113 amount=-1
kerning first=86 second=117 amount=-1
kerning first=114 second=120 amount=1
kerning first=102 second=125 amount=1
kerning first=220 second=196 amount=-1
kerning first=192 second=220 amount=-1
kerning first=86 second=226 amount=-2
kerning first=87 second=227 amount=-1
kerning first=80 second=229 amount=-1
kerning first=82 second=233 amount=-1
kerning first=80 second=234 amount=-1
kerning first=80 second=235 amount=-1
kerning first=75 second=237 amount=-1
kerning first=70 second=236 amount=1
kerning first=70 second=239 amount=1
kerning first=84 second=243 amount=-3
kerning first=80 second=242 amount=-1
kerning first=89 second=245 amount=-3
kerning first=84 second=250 amount=-3
kerning first=84 second=249 amount=-3
kerning first=84 second=251 amount=-3
kerning first=221 second=216 amount=-1
kerning first=86 second=230 amount=-2
kerning first=86 second=191 amount=-2
kerning first=85 second=192 amount=-1
kerning first=213 second=195 amount=-1
kerning first=208 second=194 amount=-1
kerning first=76 second=212 amount=-1
kerning first=197 second=219 amount=-1
kerning first=194 second=217 amount=-1
kerning first=76 second=194 amount=1
kerning first=76 second=255 amount=-1
kerning first=84 second=199 amount=-1
kerning first=86 second=100 amount=-2
kerning first=87 second=113 amount=-1
kerning first=65 second=42 amount=-2
kerning first=221 second=109 amount=-2
kerning first=76 second=219 amount=-1
kerning first=194 second=199 amount=-1
kerning first=211 second=197 amount=-1
kerning first=216 second=89 amount=-1
kerning first=222 second=224 amount=-1
kerning first=221 second=193 amount=-2
kerning first=68 second=46 amount=-2
kerning first=86 second=113 amount=-2
kerning first=195 second=86 amount=-2
kerning first=75 second=74 amount=1
kerning first=76 second=192 amount=1
kerning first=87 second=194 amount=-1
kerning first=75 second=87 amount=1
kerning first=211 second=89 amount=-1
kerning first=212 second=193 amount=-1
kerning first=75 second=253 amount=-1
kerning first=84 second=211 amount=-1
kerning first=84 second=103 amount=-3
kerning first=196 second=210 amount=-1
kerning first=221 second=224 amount=-3
kerning first=195 second=199 amount=-1
kerning first=86 second=244 amount=-2
kerning first=76 second=42 amount=-3
kerning first=81 second=86 amount=-1
kerning first=89 second=234 amount=-3
kerning first=67 second=171 amount=-1
kerning first=82 second=89 amount=-1
kerning first=216 second=65 amount=-1
kerning first=221 second=213 amount=-1
kerning first=80 second=198 amount=-4
kerning first=75 second=212 amount=-1
kerning first=82 second=245 amount=-1
kerning first=65 second=255 amount=-1
kerning first=102 second=45 amount=-2
kerning first=199 second=214 amount=-1
kerning first=80 second=88 amount=-1
kerning first=79 second=89 amount=-1
kerning first=221 second=229 amount=-3
kerning first=86 second=235 amount=-2
kerning first=65 second=220 amount=-1
kerning first=84 second=99 amount=-3
kerning first=102 second=236 amount=1
kerning first=89 second=74 amount=-1
kerning first=75 second=214 amount=-1
kerning first=192 second=213 amount=-1
kerning first=82 second=59 amount=1
kerning first=221 second=210 amount=-1
kerning first=70 second=44 amount=-2
kerning first=192 second=217 amount=-1
kerning first=187 second=221 amount=-2
kerning first=102 second=118 amount=1
kerning first=210 second=195 amount=-1
kerning first=75 second=118 amount=-1
kerning first=114 second=253 amount=1
kerning first=65 second=219 amount=-1
kerning first=221 second=198 amount=-3
kerning first=86 second=212 amount=-1
kerning first=193 second=212 amount=-1
kerning first=197 second=86 amount=-2
kerning first=192 second=79 amount=-1
kerning first=214 second=197 amount=-1
kerning first=221 second=44 amount=-3
kerning first=119 second=44 amount=-1
kerning first=76 second=221 amount=-2
kerning first=196 second=118 amount=-1
kerning first=42 second=74 amount=-2
kerning first=81 second=65 amount=-1
kerning first=208 second=195 amount=-1
kerning first=208 second=65 amount=-1
kerning first=84 second=242 amount=-3
kerning first=76 second=90 amount=1
kerning first=81 second=195 amount=-1
kerning first=88 second=84 amount=1
kerning first=86 second=234 amount=-2
kerning first=194 second=86 amount=-2
kerning first=82 second=242 amount=-1
kerning first=84 second=86 amount=1
kerning first=221 second=244 amount=-3
kerning first=65 second=90 amount=1
kerning first=75 second=121 amount=-1
kerning first=89 second=249 amount=-2
kerning first=89 second=225 amount=-3
kerning first=89 second=232 amount=-3
kerning first=220 second=193 amount=-1
kerning first=70 second=227 amount=-1
kerning first=219 second=193 amount=-1
kerning first=107 second=45 amount=-2
kerning first=192 second=210 amount=-1
kerning first=221 second=235 amount=-3
kerning first=80 second=87 amount=1
kerning first=86 second=224 amount=-2
kerning first=89 second=171 amount=-1
kerning first=80 second=246 amount=-1
kerning first=118 second=228 amount=-1
kerning first=87 second=243 amount=-1
kerning first=199 second=67 amount=-1
kerning first=85 second=197 amount=-1
kerning first=222 second=197 amount=-2
kerning first=81 second=196 amount=-1
kerning first=107 second=58 amount=1
kerning first=71 second=84 amount=-1
kerning first=65 second=221 amount=-2
kerning first=221 second=249 amount=-2
kerning first=161 second=106 amount=3
kerning first=86 second=225 amount=-2
kerning first=84 second=230 amount=-3
kerning first=82 second=243 amount=-1
kerning first=65 second=199 amount=-1
kerning first=201 second=74 amount=1
kerning first=89 second=227 amount=-2
kerning first=192 second=74 amount=1
kerning first=84 second=192 amount=-2
kerning first=70 second=65 amount=-2
kerning first=89 second=191 amount=-4
kerning first=102 second=239 amount=2
kerning first=87 second=44 amount=-2
kerning first=87 second=232 amount=-1
kerning first=85 second=196 amount=-1
kerning first=112 second=102 amount=-1
kerning first=83 second=253 amount=-1
kerning first=212 second=87 amount=-1
kerning first=89 second=229 amount=-3
kerning first=84 second=81 amount=-1
kerning first=65 second=211 amount=-1
kerning first=42 second=99 amount=-2
kerning first=196 second=71 amount=-1
kerning first=210 second=194 amount=-1
kerning first=195 second=121 amount=-1
kerning first=70 second=238 amount=1
kerning first=89 second=112 amount=-2
kerning first=89 second=213 amount=-1
kerning first=76 second=199 amount=-1
kerning first=80 second=244 amount=-1
kerning first=216 second=221 amount=-1
kerning first=221 second=101 amount=-3
kerning first=222 second=196 amount=-2
kerning first=82 second=111 amount=-1
kerning first=222 second=246 amount=-1
kerning first=86 second=171 amount=-1
kerning first=222 second=46 amount=-5
kerning first=221 second=212 amount=-1
kerning first=75 second=213 amount=-1
kerning first=80 second=231 amount=-1
kerning first=99 second=89 amount=-1
kerning first=221 second=74 amount=-1
kerning first=80 second=113 amount=-1
kerning first=210 second=65 amount=-1
kerning first=87 second=233 amount=-1
kerning first=193 second=79 amount=-1
kerning first=76 second=211 amount=-1
kerning first=86 second=79 amount=-1
kerning first=102 second=187 amount=1
kerning first=70 second=194 amount=-2
kerning first=210 second=192 amount=-1
kerning first=117 second=39 amount=-1
kerning first=80 second=97 amount=-1
kerning first=76 second=81 amount=-1
kerning first=193 second=118 amount=-1
kerning first=74 second=196 amount=-1
kerning first=70 second=226 amount=-1
kerning first=84 second=115 amount=-2
kerning first=80 second=44 amount=-5
kerning first=192 second=253 amount=-1
kerning first=80 second=226 amount=-1
kerning first=79 second=90 amount=-1
kerning first=211 second=84 amount=-1
kerning first=88 second=239 amount=1
kerning first=79 second=221 amount=-1
kerning first=76 second=65 amount=1
kerning first=87 second=103 amount=-1
kerning first=84 second=65 amount=-2
kerning first=80 second=224 amount=-1
kerning first=65 second=86 amount=-2
kerning first=192 second=118 amount=-1
kerning first=192 second=212 amount=-1
kerning first=222 second=111 amount=-1
kerning first=117 second=34 amount=-1
kerning first=65 second=59 amount=1
kerning first=193 second=213 amount=-1
kerning first=193 second=253 amount=-1
kerning first=218 second=197 amount=-1
kerning first=114 second=116 amount=1
kerning first=75 second=79 amount=-1
kerning first=221 second=113 amount=-3
kerning first=70 second=192 amount=-2
kerning first=75 second=113 amount=-1
kerning first=222 second=228 amount=-1
kerning first=81 second=192 amount=-1
kerning first=208 second=192 amount=-1
kerning first=79 second=197 amount=-1
kerning first=221 second=171 amount=-1
kerning first=196 second=119 amount=-1
kerning first=118 second=46 amount=-2
kerning first=76 second=121 amount=-1
kerning first=87 second=242 amount=-1
kerning first=68 second=90 amount=-1
kerning first=213 second=84 amount=-1
kerning first=214 second=84 amount=-1
kerning first=90 second=255 amount=-1
kerning first=197 second=121 amount=-1
kerning first=76 second=86 amount=-2
kerning first=86 second=112 amount=-1
kerning first=116 second=187 amount=1
kerning first=68 second=197 amount=-1
kerning first=89 second=100 amount=-3
kerning first=83 second=118 amount=-1
kerning first=222 second=226 amount=-1
kerning first=107 second=46 amount=1
kerning first=87 second=230 amount=-1
kerning first=84 second=194 amount=-2
kerning first=86 second=101 amount=-2
kerning first=213 second=89 amount=-1
kerning first=211 second=221 amount=-1
kerning first=221 second=231 amount=-3
kerning first=214 second=89 amount=-1
kerning first=86 second=74 amount=-1
kerning first=42 second=100 amount=-2
kerning first=193 second=74 amount=1
kerning first=217 second=65 amount=-1
kerning first=107 second=111 amount=-1
kerning first=213 second=196 amount=-1
kerning first=218 second=196 amount=-1
kerning first=214 second=196 amount=-1
kerning first=102 second=44 amount=-2
kerning first=196 second=253 amount=-1
kerning first=89 second=195 amount=-2
kerning first=196 second=87 amount=-1
kerning first=211 second=90 amount=-1
kerning first=67 second=81 amount=-1
kerning first=221 second=195 amount=-2
kerning first=192 second=87 amount=-1
kerning first=90 second=84 amount=1
kerning first=216 second=194 amount=-1
kerning first=208 second=44 amount=-2
kerning first=81 second=44 amount=-1
kerning first=199 second=199 amount=-1
kerning first=82 second=235 amount=-1
kerning first=196 second=217 amount=-1
kerning first=121 second=63 amount=-1
kerning first=84 second=197 amount=-2
kerning first=74 second=193 amount=-1
kerning first=86 second=196 amount=-2
kerning first=76 second=67 amount=-1
kerning first=222 second=195 amount=-2
kerning first=193 second=86 amount=-2
kerning first=84 second=74 amount=-2
kerning first=194 second=74 amount=1
kerning first=210 second=221 amount=-1
kerning first=89 second=79 amount=-1
kerning first=87 second=65 amount=-1
kerning first=84 second=234 amount=-3
kerning first=212 second=88 amount=-1
kerning first=221 second=241 amount=-2
kerning first=194 second=118 amount=-1
kerning first=222 second=192 amount=-2
kerning first=76 second=216 amount=-1
kerning first=87 second=171 amount=-1
kerning first=86 second=231 amount=-2
kerning first=194 second=89 amount=-2
kerning first=107 second=244 amount=-1
kerning first=116 second=63 amount=-1
kerning first=114 second=118 amount=1
kerning first=222 second=193 amount=-2
kerning first=40 second=106 amount=4
kerning first=85 second=193 amount=-1
kerning first=102 second=253 amount=1
kerning first=65 second=84 amount=-2
kerning first=213 second=87 amount=-1
kerning first=199 second=211 amount=-1
kerning first=221 second=225 amount=-3
kerning first=76 second=119 amount=-1
kerning first=86 second=229 amount=-2
kerning first=197 second=213 amount=-1
kerning first=107 second=235 amount=-1
kerning first=199 second=210 amount=-1
kerning first=111 second=34 amount=-2
kerning first=89 second=198 amount=-3
kerning first=102 second=46 amount=-2
kerning first=86 second=192 amount=-2
kerning first=194 second=212 amount=-1
kerning first=75 second=88 amount=1
kerning first=214 second=192 amount=-1
kerning first=213 second=192 amount=-1
kerning first=218 second=192 amount=-1
kerning first=89 second=194 amount=-2
kerning first=69 second=74 amount=1
kerning first=89 second=250 amount=-2
kerning first=192 second=71 amount=-1
kerning first=84 second=171 amount=-2
kerning first=217 second=197 amount=-1
kerning first=74 second=46 amount=-2
kerning first=65 second=119 amount=-1
kerning first=208 second=198 amount=-1
kerning first=86 second=110 amount=-1
kerning first=220 second=195 amount=-1
kerning first=87 second=226 amount=-1
kerning first=213 second=90 amount=-1
kerning first=214 second=90 amount=-1
kerning first=89 second=101 amount=-3
kerning first=219 second=195 amount=-1
kerning first=197 second=220 amount=-1
kerning first=68 second=84 amount=-1
kerning first=84 second=241 amount=-3
kerning first=81 second=194 amount=-1
kerning first=71 second=255 amount=-1
kerning first=89 second=214 amount=-1
kerning first=86 second=103 amount=-2
kerning first=221 second=199 amount=-1
kerning first=221 second=112 amount=-2
kerning first=67 second=213 amount=-1
kerning first=222 second=235 amount=-1
kerning first=76 second=197 amount=1
kerning first=70 second=224 amount=-1
kerning first=82 second=246 amount=-1
kerning first=70 second=195 amount=-2
kerning first=195 second=212 amount=-1
kerning first=89 second=193 amount=-2
kerning first=196 second=214 amount=-1
kerning first=89 second=84 amount=1
kerning first=70 second=230 amount=-1
kerning first=89 second=212 amount=-1
kerning first=67 second=79 amount=-1
kerning first=89 second=243 amount=-3
kerning first=87 second=197 amount=-1
kerning first=42 second=101 amount=-2
kerning first=221 second=71 amount=-1
kerning first=219 second=196 amount=-1
kerning first=79 second=84 amount=-1
kerning first=212 second=195 amount=-1
kerning first=82 second=99 amount=-1
kerning first=75 second=86 amount=1
kerning first=194 second=121 amount=-1
kerning first=84 second=121 amount=-2
kerning first=80 second=225 amount=-1
kerning first=107 second=99 amount=-1
kerning first=210 second=89 amount=-1
kerning first=195 second=89 amount=-2
kerning first=197 second=79 amount=-1
kerning first=194 second=67 amount=-1
kerning first=84 second=67 amount=-1
kerning first=88 second=46 amount=1
kerning first=253 second=63 amount=-1
kerning first=102 second=116 amount=1
kerning first=84 second=113 amount=-3
kerning first=42 second=113 amount=-2
kerning first=197 second=221 amount=-2
kerning first=211 second=192 amount=-1
kerning first=203 second=74 amount=1
kerning first=195 second=219 amount=-1
kerning first=79 second=65 amount=-1
kerning first=199 second=216 amount=-1
kerning first=106 second=106 amount=1
kerning first=89 second=71 amount=-1
kerning first=65 second=89 amount=-2
kerning first=118 second=226 amount=-1
kerning first=222 second=87 amount=1
kerning first=75 second=81 amount=-1
kerning first=87 second=99 amount=-1
kerning first=86 second=194 amount=-2
kerning first=80 second=228 amount=-1
kerning first=89 second=244 amount=-3
kerning first=114 second=59 amount=1
kerning first=81 second=221 amount=-1
kerning first=212 second=196 amount=-1
kerning first=87 second=246 amount=-1
kerning first=196 second=85 amount=-1
kerning first=197 second=212 amount=-1
kerning first=194 second=213 amount=-1
kerning first=89 second=231 amount=-3
kerning first=197 second=74 amount=1
kerning first=89 second=113 amount=-3
kerning first=68 second=65 amount=-1
kerning first=118 second=97 amount=-1
kerning first=196 second=255 amount=-1
kerning first=114 second=44 amount=-2
kerning first=195 second=79 amount=-1
kerning first=194 second=219 amount=-1
kerning first=114 second=121 amount=1
kerning first=68 second=192 amount=-1
kerning first=220 second=194 amount=-1
kerning first=219 second=194 amount=-1
kerning first=65 second=217 amount=-1
kerning first=208 second=46 amount=-2
kerning first=195 second=220 amount=-1
kerning first=84 second=111 amount=-3
kerning first=195 second=118 amount=-1
kerning first=221 second=115 amount=-2
kerning first=221 second=196 amount=-2
kerning first=221 second=252 amount=-2
kerning first=42 second=103 amount=-2
kerning first=89 second=44 amount=-3
kerning first=107 second=242 amount=-1
kerning first=81 second=197 amount=-1
kerning first=84 second=84 amount=1
kerning first=214 second=87 amount=-1
kerning first=221 second=245 amount=-3
kerning first=208 second=197 amount=-1
kerning first=221 second=232 amount=-3
kerning first=194 second=84 amount=-2
kerning first=84 second=227 amount=-3
kerning first=208 second=86 amount=-1
kerning first=221 second=100 amount=-3
kerning first=75 second=244 amount=-1
kerning first=86 second=109 amount=-1
kerning first=211 second=65 amount=-1
kerning first=187 second=86 amount=-1
kerning first=89 second=224 amount=-3
kerning first=87 second=234 amount=-1
kerning first=195 second=213 amount=-1
kerning first=86 second=251 amount=-1
kerning first=107 second=233 amount=-1
kerning first=89 second=230 amount=-3
kerning first=84 second=79 amount=-1
kerning first=194 second=79 amount=-1
kerning first=79 second=192 amount=-1
kerning first=102 second=63 amount=1
kerning first=221 second=214 amount=-1
kerning first=86 second=71 amount=-1
kerning first=193 second=71 amount=-1
kerning first=70 second=197 amount=-2
kerning first=111 second=39 amount=-2
kerning first=194 second=220 amount=-1
kerning first=90 second=239 amount=1
kerning first=89 second=81 amount=-1
kerning first=195 second=221 amount=-2
kerning first=80 second=196 amount=-2
kerning first=71 second=87 amount=-1
kerning first=87 second=84 amount=1
kerning first=70 second=74 amount=-1
kerning first=80 second=245 amount=-1
kerning first=86 second=44 amount=-3
kerning first=90 second=121 amount=-1
kerning first=65 second=121 amount=-1
kerning first=192 second=218 amount=-1
kerning first=86 second=232 amount=-2
kerning first=211 second=87 amount=-1
kerning first=80 second=100 amount=-1
kerning first=80 second=193 amount=-2
kerning first=89 second=103 amount=-3
kerning first=221 second=191 amount=-4
kerning first=87 second=111 amount=-1
kerning first=216 second=86 amount=-1
kerning first=197 second=118 amount=-1
kerning first=76 second=89 amount=-2
kerning first=222 second=243 amount=-1
kerning first=65 second=67 amount=-1
kerning first=80 second=46 amount=-5
kerning first=70 second=193 amount=-2
kerning first=221 second=228 amount=-2
kerning first=210 second=197 amount=-1
kerning first=123 second=106 amount=3
kerning first=221 second=110 amount=-2
kerning first=84 second=221 amount=1
kerning first=75 second=71 amount=-1
kerning first=192 second=214 amount=-1
kerning first=222 second=97 amount=-1
kerning first=195 second=74 amount=1
kerning first=102 second=119 amount=1
kerning first=89 second=251 amount=-2
kerning first=65 second=216 amount=-1
kerning first=191 second=221 amount=-2
kerning first=75 second=44 amount=1
kerning first=222 second=242 amount=-1
kerning first=80 second=195 amount=-2
kerning first=68 second=198 amount=-1
kerning first=68 second=87 amount=-1
kerning first=208 second=84 amount=-1
kerning first=81 second=84 amount=-1
kerning first=196 second=211 amount=-1
kerning first=74 second=195 amount=-1
kerning first=86 second=245 amount=-2
kerning first=196 second=90 amount=1
kerning first=212 second=194 amount=-1
kerning first=192 second=255 amount=-1
kerning first=107 second=245 amount=-1
kerning first=217 second=192 amount=-1
kerning first=75 second=199 amount=-2
kerning first=82 second=234 amount=-1
kerning first=110 second=39 amount=-2
kerning first=114 second=119 amount=1
kerning first=210 second=196 amount=-1
kerning first=211 second=86 amount=-1
kerning first=111 second=102 amount=-1
kerning first=67 second=67 amount=-1
kerning first=84 second=101 amount=-3
kerning first=86 second=46 amount=-4
kerning first=87 second=198 amount=-2
kerning first=196 second=221 amount=-2
kerning first=210 second=88 amount=-1
kerning first=214 second=65 amount=-1
kerning first=218 second=65 amount=-1
kerning first=221 second=230 amount=-3
kerning first=86 second=115 amount=-1
kerning first=212 second=192 amount=-1
kerning first=89 second=252 amount=-2
kerning first=67 second=216 amount=-1
kerning first=75 second=89 amount=1
kerning first=197 second=211 amount=-1
kerning first=84 second=196 amount=-2
kerning first=34 second=114 amount=-1
kerning first=221 second=111 amount=-3
kerning first=221 second=81 amount=-1
kerning first=103 second=106 amount=1
kerning first=221 second=227 amount=-2
kerning first=76 second=193 amount=1
kerning first=197 second=84 amount=-2
kerning first=221 second=117 amount=-2
kerning first=87 second=239 amount=2
kerning first=75 second=245 amount=-1
kerning first=86 second=213 amount=-1
kerning first=85 second=195 amount=-1
kerning first=76 second=84 amount=-2
kerning first=75 second=59 amount=1
kerning first=65 second=213 amount=-1
kerning first=65 second=218 amount=-1
kerning first=107 second=234 amount=-1
kerning first=84 second=120 amount=-3
kerning first=82 second=74 amount=1
kerning first=210 second=86 amount=-1
kerning first=85 second=65 amount=-1
kerning first=87 second=235 amount=-1
kerning first=222 second=65 amount=-2
kerning first=89 second=67 amount=-1
kerning first=192 second=219 amount=-1
kerning first=222 second=225 amount=-1
kerning first=84 second=246 amount=-3
kerning first=199 second=212 amount=-1
kerning first=216 second=84 amount=-1
kerning first=86 second=233 amount=-2
kerning first=79 second=44 amount=-1
kerning first=221 second=243 amount=-3
kerning first=83 second=255 amount=-1
kerning first=39 second=115 amount=-1
kerning first=80 second=194 amount=-2
kerning first=67 second=71 amount=-1
kerning first=89 second=216 amount=-1
kerning first=214 second=193 amount=-1
kerning first=86 second=228 amount=-2
kerning first=65 second=79 amount=-1
kerning first=89 second=197 amount=-2
kerning first=119 second=46 amount=-2
kerning first=89 second=115 amount=-2
kerning first=114 second=46 amount=-3
kerning first=221 second=46 amount=-3
kerning first=171 second=74 amount=1
kerning first=197 second=119 amount=-1
kerning first=80 second=232 amount=-1
kerning first=210 second=84 amount=-1
kerning first=195 second=84 amount=-2
kerning first=74 second=198 amount=-2
kerning first=193 second=217 amount=-1
kerning first=71 second=121 amount=-1
kerning first=74 second=65 amount=-1
kerning first=222 second=229 amount=-1
kerning first=213 second=197 amount=-1
kerning first=76 second=213 amount=-1
kerning first=68 second=193 amount=-1
kerning first=65 second=210 amount=-1
kerning first=86 second=111 amount=-2
kerning first=90 second=187 amount=1
kerning first=84 second=118 amount=-2
kerning first=208 second=196 amount=-1
kerning first=192 second=85 amount=-1
kerning first=84 second=216 amount=-1
kerning first=82 second=113 amount=-1
kerning first=196 second=86 amount=-2
kerning first=70 second=97 amount=-1
kerning first=76 second=79 amount=-1
kerning first=118 second=225 amount=-1
kerning first=194 second=221 amount=-2
kerning first=80 second=243 amount=-1
kerning first=221 second=194 amount=-2
kerning first=65 second=44 amount=1
kerning first=84 second=110 amount=-3
kerning first=193 second=214 amount=-1
kerning first=87 second=101 amount=-1
kerning first=84 second=97 amount=-3
kerning first=86 second=214 amount=-1
kerning first=192 second=221 amount=-2
kerning first=221 second=233 amount=-3
kerning first=212 second=221 amount=-1
kerning first=197 second=71 amount=-1
kerning first=118 second=227 amount=-1
kerning first=71 second=253 amount=-1
kerning first=70 second=196 amount=-2
kerning first=79 second=87 amount=-1
kerning first=87 second=46 amount=-2
kerning first=192 second=90 amount=1
kerning first=212 second=90 amount=-1
kerning first=65 second=87 amount=-1
kerning first=87 second=229 amount=-1
kerning first=80 second=99 amount=-1
kerning first=79 second=193 amount=-1
kerning first=196 second=199 amount=-1
kerning first=76 second=210 amount=-1
kerning first=84 second=231 amount=-4
kerning first=193 second=89 amount=-2
kerning first=75 second=67 amount=-1
kerning first=216 second=197 amount=-1
kerning first=114 second=58 amount=1
kerning first=195 second=67 amount=-1
kerning first=102 second=121 amount=1
kerning first=80 second=233 amount=-1
kerning first=76 second=74 amount=2
kerning first=193 second=219 amount=-1
kerning first=194 second=216 amount=-1
kerning first=99 second=84 amount=-2
kerning first=216 second=88 amount=-1
kerning first=187 second=89 amount=-2
kerning first=197 second=89 amount=-2
kerning first=87 second=231 amount=-1
kerning first=84 second=239 amount=2
kerning first=193 second=255 amount=-1
kerning first=65 second=253 amount=-1
kerning first=76 second=87 amount=-1
kerning first=222 second=232 amount=-1
kerning first=221 second=211 amount=-1
kerning first=221 second=250 amount=-2
kerning first=102 second=58 amount=1
kerning first=89 second=228 amount=-2
kerning first=83 second=122 amount=-1
kerning first=222 second=100 amount=-1
kerning first=84 second=224 amount=-3
kerning first=192 second=199 amount=-1
kerning first=221 second=197 amount=-2
kerning first=221 second=103 amount=-3
kerning first=195 second=119 amount=-1
kerning first=88 second=44 amount=1
kerning first=89 second=110 amount=-2
kerning first=216 second=196 amount=-1
kerning first=81 second=89 amount=-1
kerning first=110 second=34 amount=-2
kerning first=80 second=192 amount=-2
kerning first=199 second=213 amount=-1
kerning first=70 second=198 amount=-3
kerning first=86 second=241 amount=-1
kerning first=84 second=238 amount=1
kerning first=65 second=74 amount=1
kerning first=84 second=119 amount=-2
kerning first=192 second=211 amount=-1
kerning first=75 second=243 amount=-1
kerning first=84 second=187 amount=-1
kerning first=195 second=216 amount=-1
kerning first=114 second=45 amount=-2
kerning first=193 second=220 amount=-1
kerning first=75 second=111 amount=-1
kerning first=76 second=253 amount=-1
kerning first=75 second=255 amount=-1
kerning first=118 second=229 amount=-1
kerning first=107 second=246 amount=-1
kerning first=194 second=119 amount=-1
kerning first=86 second=195 amount=-2
kerning first=222 second=99 amount=-1
kerning first=211 second=193 amount=-1
kerning first=87 second=244 amount=-1
kerning first=90 second=74 amount=1
kerning first=194 second=210 amount=-1
kerning first=82 second=100 amount=-1
kerning first=84 second=244 amount=-3
kerning first=84 second=210 amount=-1
kerning first=84 second=114 amount=-3
kerning first=76 second=118 amount=-2
kerning first=222 second=194 amount=-2
kerning first=76 second=85 amount=-1
kerning first=213 second=193 amount=-1
kerning first=218 second=193 amount=-1
kerning first=71 second=122 amount=-1
kerning first=199 second=81 amount=-1
kerning first=208 second=88 amount=-1
kerning first=81 second=88 amount=-1
kerning first=80 second=230 amount=-1
kerning first=199 second=79 amount=-1
kerning first=86 second=243 amount=-2
kerning first=89 second=111 amount=-3
kerning first=76 second=220 amount=-1
kerning first=197 second=214 amount=-1
kerning first=84 second=252 amount=-3
kerning first=195 second=71 amount=-1
kerning first=42 second=65 amount=-3
kerning first=220 second=197 amount=-1
kerning first=219 second=197 amount=-1
kerning first=193 second=221 amount=-2
kerning first=89 second=196 amount=-2
kerning first=214 second=195 amount=-1
kerning first=193 second=90 amount=1
kerning first=218 second=195 amount=-1
kerning first=171 second=87 amount=1
kerning first=222 second=88 amount=-1
kerning first=221 second=242 amount=-3
kerning first=194 second=87 amount=-1
kerning first=80 second=103 amount=-1
kerning first=195 second=210 amount=-1
kerning first=42 second=111 amount=-2
kerning first=212 second=86 amount=-1
kerning first=192 second=86 amount=-2
kerning first=87 second=224 amount=-1
kerning first=65 second=118 amount=-1
kerning first=193 second=85 amount=-1
kerning first=86 second=250 amount=-1
kerning first=89 second=46 amount=-3
kerning first=84 second=198 amount=-4
kerning first=86 second=197 amount=-2
kerning first=196 second=218 amount=-1
kerning first=194 second=71 amount=-1
kerning first=74 second=192 amount=-1
kerning first=75 second=221 amount=1
kerning first=84 second=212 amount=-1
kerning first=84 second=71 amount=-1
kerning first=67 second=214 amount=-1
kerning first=253 second=44 amount=-2
kerning first=80 second=65 amount=-2
kerning first=197 second=216 amount=-1
kerning first=34 second=115 amount=-1
kerning first=90 second=253 amount=-1
kerning first=84 second=44 amount=-2
kerning first=197 second=218 amount=-1
kerning first=216 second=195 amount=-1
kerning first=79 second=46 amount=-1
kerning first=84 second=226 amount=-3
kerning first=75 second=90 amount=1
kerning first=87 second=187 amount=1
kerning first=210 second=87 amount=-1
kerning first=195 second=87 amount=-1
kerning first=70 second=229 amount=-1
kerning first=85 second=194 amount=-1
kerning first=192 second=121 amount=-1
kerning first=194 second=211 amount=-1
kerning first=89 second=210 amount=-1
kerning first=82 second=103 amount=-1
kerning first=79 second=86 amount=-1
kerning first=86 second=193 amount=-2
kerning first=68 second=196 amount=-1
kerning first=192 second=67 amount=-1
kerning first=65 second=212 amount=-1
kerning first=88 second=59 amount=1
kerning first=221 second=226 amount=-3
kerning first=86 second=246 amount=-2
kerning first=82 second=221 amount=-1
kerning first=196 second=212 amount=-1
kerning first=75 second=116 amount=-1
kerning first=221 second=97 amount=-3
kerning first=84 second=233 amount=-3
kerning first=68 second=88 amount=-1
kerning first=216 second=192 amount=-1
kerning first=87 second=225 amount=-1
kerning first=68 second=86 amount=-1
kerning first=87 second=238 amount=1
kerning first=218 second=194 amount=-1
kerning first=213 second=194 amount=-1
kerning first=116 second=45 amount=-2
kerning first=214 second=194 amount=-1
kerning first=211 second=195 amount=-1
kerning first=84 second=87 amount=1
kerning first=171 second=90 amount=1
kerning first=197 second=217 amount=-1
kerning first=66 second=89 amount=-1
kerning first=192 second=216 amount=-1
kerning first=211 second=196 amount=-1
kerning first=194 second=253 amount=-1
kerning first=84 second=253 amount=-2
kerning first=216 second=193 amount=-1
kerning first=87 second=192 amount=-1
kerning first=82 second=232 amount=-1
kerning first=221 second=84 amount=1
kerning first=86 second=99 amount=-2
kerning first=84 second=245 amount=-3
kerning first=75 second=211 amount=-1
kerning first=70 second=228 amount=-1
kerning first=76 second=195 amount=1
kerning first=192 second=119 amount=-1
kerning first=217 second=194 amount=-1
kerning first=67 second=212 amount=-1
kerning first=86 second=199 amount=-1
kerning first=193 second=199 amount=-1
kerning first=82 second=101 amount=-1
kerning first=84 second=100 amount=-3
kerning first=89 second=235 amount=-3
kerning first=86 second=198 amount=-3
kerning first=196 second=74 amount=1
kerning first=84 second=214 amount=-1
kerning first=196 second=89 amount=-2
kerning first=197 second=85 amount=-1
kerning first=253 second=46 amount=-2
kerning first=212 second=65 amount=-1
kerning first=84 second=46 amount=-3
kerning first=75 second=246 amount=-1
kerning first=212 second=84 amount=-1
kerning first=192 second=84 amount=-2
kerning first=193 second=211 amount=-1
kerning first=211 second=88 amount=-1
kerning first=86 second=211 amount=-1
kerning first=86 second=114 amount=-1
kerning first=76 second=71 amount=-1
kerning first=221 second=251 amount=-2
kerning first=86 second=97 amount=-2
kerning first=194 second=214 amount=-1
kerning first=71 second=88 amount=-1
kerning first=80 second=197 amount=-2
kerning first=89 second=239 amount=1
kerning first=191 second=106 amount=3
kerning first=82 second=231 amount=-1
kerning first=114 second=122 amount=1
kerning first=79 second=195 amount=-1
kerning first=208 second=87 amount=-1
kerning first=107 second=101 amount=-1
kerning first=81 second=87 amount=-1
kerning first=107 second=232 amount=-1
kerning first=193 second=84 amount=-2
kerning first=213 second=221 amount=-1
kerning first=80 second=74 amount=-2
kerning first=86 second=242 amount=-2
kerning first=121 second=44 amount=-2
kerning first=222 second=44 amount=-5
kerning first=221 second=65 amount=-2
kerning first=196 second=121 amount=-1
kerning first=86 second=227 amount=-2
kerning first=210 second=193 amount=-1
kerning first=197 second=210 amount=-1
kerning first=89 second=199 amount=-1
kerning first=68 second=195 amount=-1
kerning first=196 second=67 amount=-1
kerning first=81 second=46 amount=-2
kerning first=89 second=192 amount=-2
kerning first=222 second=244 amount=-1
kerning first=84 second=228 amount=-3
kerning first=107 second=243 amount=-1
kerning first=74 second=194 amount=-1
kerning first=89 second=211 amount=-1
kerning first=74 second=44 amount=-2
kerning first=65 second=71 amount=-1
kerning first=196 second=216 amount=-1
kerning first=195 second=214 amount=-1
kerning first=214 second=88 amount=-1
kerning first=213 second=88 amount=-1
kerning first=208 second=193 amount=-1
kerning first=222 second=234 amount=-1
kerning first=221 second=114 amount=-2
kerning first=79 second=196 amount=-1
kerning first=81 second=193 amount=-1
kerning first=75 second=242 amount=-1
kerning first=216 second=90 amount=-1
kerning first=197 second=87 amount=-1
kerning first=187 second=87 amount=-1
kerning first=197 second=90 amount=1
kerning first=194 second=218 amount=-1
kerning first=89 second=99 amount=-3
kerning first=76 second=217 amount=-1
kerning first=102 second=59 amount=1
kerning first=67 second=210 amount=-1
kerning first=89 second=246 amount=-3
kerning first=70 second=46 amount=-2
kerning first=212 second=197 amount=-1
kerning first=85 second=198 amount=-2
kerning first=222 second=198 amount=-4
kerning first=193 second=67 amount=-1
kerning first=83 second=116 amount=-1
kerning first=86 second=67 amount=-1
kerning first=222 second=101 amount=-1
kerning first=84 second=122 amount=-2
kerning first=213 second=86 amount=-1
kerning first=214 second=86 amount=-1
kerning first=221 second=234 amount=-3
kerning first=197 second=199 amount=-1
kerning first=80 second=227 amount=-1
kerning first=202 second=74 amount=1
kerning first=75 second=216 amount=-1
kerning first=220 second=65 amount=-1
kerning first=219 second=65 amount=-1
kerning first=222 second=233 amount=-1
kerning first=191 second=89 amount=-2
kerning first=75 second=239 amount=1
kerning first=76 second=196 amount=1
kerning first=197 second=255 amount=-1
kerning first=118 second=44 amount=-2
kerning first=197 second=253 amount=-1
kerning first=195 second=255 amount=-1
kerning first=208 second=90 amount=-1
kerning first=216 second=87 amount=-1
kerning first=86 second=239 amount=1
kerning first=86 second=84 amount=1
kerning first=171 second=84 amount=-1
kerning first=196 second=84 amount=-2
kerning first=81 second=90 amount=-1
kerning first=193 second=121 amount=-1
kerning first=195 second=218 amount=-1
kerning first=68 second=194 amount=-1
kerning first=74 second=197 amount=-1
kerning first=67 second=199 amount=-1
kerning first=193 second=119 amount=-1
kerning first=99 second=221 amount=-1
kerning first=101 second=34 amount=-2
kerning first=214 second=221 amount=-1
kerning first=74 second=74 amount=-1
kerning first=86 second=65 amount=-2
kerning first=195 second=90 amount=1
kerning first=67 second=211 amount=-1
kerning first=118 second=230 amount=-1
kerning first=79 second=194 amount=-1
kerning first=87 second=191 amount=-1
kerning first=193 second=216 amount=-1
kerning first=86 second=249 amount=-1
kerning first=89 second=97 amount=-3
kerning first=86 second=216 amount=-1
kerning first=89 second=109 amount=-2
kerning first=91 second=106 amount=4
kerning first=193 second=218 amount=-1
kerning first=84 second=195 amount=-2
kerning first=114 second=102 amount=1
kerning first=107 second=44 amount=1
kerning first=194 second=255 amount=-1
kerning first=87 second=228 amount=-1
kerning first=84 second=255 amount=-2
kerning first=89 second=242 amount=-3
kerning first=89 second=226 amount=-3
kerning first=66 second=84 amount=-1
kerning first=200 second=74 amount=1
kerning first=75 second=119 amount=-1
kerning first=71 second=86 amount=-1
kerning first=84 second=225 amount=-3
kerning first=213 second=65 amount=-1
kerning first=107 second=59 amount=1
kerning first=84 second=193 amount=-2
kerning first=196 second=213 amount=-1
kerning first=118 second=224 amount=-1
kerning first=222 second=103 amount=-1
kerning first=99 second=74 amount=1
kerning first=75 second=210 amount=-1
kerning first=121 second=46 amount=-2
kerning first=84 second=213 amount=-1
kerning first=221 second=246 amount=-3
kerning first=194 second=85 amount=-1
kerning first=87 second=193 amount=-1
kerning first=195 second=211 amount=-1
kerning first=195 second=253 amount=-1
kerning first=89 second=233 amount=-3
kerning first=196 second=219 amount=-1
kerning first=220 second=192 amount=-1
kerning first=219 second=192 amount=-1
kerning first=222 second=227 amount=-1
kerning first=65 second=214 amount=-1
kerning first=89 second=114 amount=-2
kerning first=217 second=196 amount=-1
kerning first=87 second=195 amount=-1
kerning first=84 second=229 amount=-3
kerning first=210 second=90 amount=-1
kerning first=82 second=84 amount=-1
kerning first=88 second=74 amount=2
kerning first=221 second=99 amount=-3
kerning first=84 second=112 amount=-3
kerning first=68 second=44 amount=-2
kerning first=83 second=121 amount=-1
kerning first=70 second=225 amount=-1
kerning first=76 second=218 amount=-1
kerning first=84 second=117 amount=-3
kerning first=89 second=117 amount=-2
kerning first=222 second=74 amount=-2
kerning first=222 second=245 amount=-1
kerning first=107 second=103 amount=-1
kerning first=86 second=210 amount=-1
kerning first=193 second=210 amount=-1
kerning first=82 second=244 amount=-1
kerning first=192 second=89 amount=-2
kerning first=212 second=89 amount=-1
kerning first=222 second=231 amount=-1
kerning first=195 second=85 amount=-1
kerning first=84 second=235 amount=-3
kerning first=195 second=217 amount=-1
kerning first=221 second=67 amount=-1
kerning first=39 second=114 amount=-1
kerning first=79 second=88 amount=-1
kerning first=87 second=245 amount=-1
kerning first=196 second=79 amount=-1
kerning first=211 second=194 amount=-1
kerning first=222 second=230 amount=-1
kerning first=66 second=221 amount=-1
kerning first=89 second=241 amount=-2
kerning first=221 second=192 amount=-2
kerning first=199 second=71 amount=-1
kerning first=86 second=252 amount=-1
kerning first=76 second=214 amount=-1
kerning first=87 second=100 amount=-1
kerning first=196 second=220 amount=-1
kerning first=89 second=65 amount=-2
kerning first=217 second=193 amount=-1
kerning first=80 second=111 amount=-1
kerning first=87 second=196 amount=-1
kerning first=221 second=239 amount=1
kerning first=217 second=195 amount=-1
kerning first=194 second=90 amount=1
